{
  "驼峰类名": "Expert",
  "蛇形类名": "expert",
  "蛇形类名复数": "experts",
  "模型展示名称": "专家",
  "项目路径": "/home/ff4c00/space/code/yggc/data_centre",
  "子项目名称": "centre",
  "页面参数": {
    "列表": {
      "搜索字段": {
        "姓名": null,
        "性别": null,
        "身份证": null,
        "电话": null,
        "地址": null,
        "所属行业": null
      },
      "显示字段": {
        "姓名": "name",
        "性别": "gender",
        "身份证": "identity_card",
        "电话": "mobile",
        "地址": "address",
        "所属行业": "industry"
      },
      "排序字段": "-id"
    },
    "增删改": true
  }
}